<svg width="247" height="255" viewBox="0 0 247 255" fill="none" xmlns="http://www.w3.org/2000/svg">
<path d="M127.46 220.741C179.233 220.741 221.204 178.628 221.204 126.677C221.204 74.7258 179.233 32.6118 127.46 32.6118C75.687 32.6118 33.718 74.7248 33.718 126.677C33.718 178.629 75.69 220.741 127.46 220.741Z" fill="#2A2E38"/>
<path fill-rule="evenodd" clip-rule="evenodd" d="M127.46 237.775C188.609 237.775 238.179 188.035 238.179 126.675C238.179 65.3147 188.608 15.5747 127.46 15.5747C66.312 15.5747 16.741 65.3167 16.741 126.675C16.741 188.033 66.312 237.775 127.46 237.775Z" stroke="#2A2E38" stroke-width="2" stroke-linecap="round" stroke-linejoin="round" stroke-dasharray="1"/>
<path d="M65.55 51.6917C67.3729 51.1064 68.6631 49.4799 68.818 47.5716C68.9728 45.6634 67.9619 43.85 66.2572 42.9784C64.5526 42.1069 62.4906 42.3491 61.0344 43.5921C59.5782 44.835 59.015 46.8333 59.608 48.6537C60.4167 51.1276 63.0709 52.4847 65.55 51.6917Z" fill="#EAEEF9"/>
<path d="M75.845 36.2529C77.0849 35.8551 77.9626 34.7488 78.068 33.4509C78.1733 32.153 77.4857 30.9197 76.3262 30.327C75.1667 29.7344 73.7643 29.8994 72.7741 30.745C71.7838 31.5906 71.4012 32.9499 71.805 34.1879C72.3548 35.87 74.1596 36.7925 75.845 36.2529Z" fill="#EAEEF9"/>
<path d="M43.714 214.685C44.9394 214.689 46.0462 213.953 46.5178 212.822C46.9893 211.691 46.7327 210.387 45.8676 209.519C45.0025 208.651 43.6996 208.391 42.567 208.858C41.4343 209.326 40.6954 210.431 40.695 211.656C40.6934 212.458 41.0106 213.228 41.5768 213.796C42.1431 214.364 42.9119 214.684 43.714 214.685Z" fill="url(#paint0_linear)"/>
<path d="M237.26 183.605C238.166 182.781 238.485 181.493 238.07 180.341C237.654 179.19 236.585 178.402 235.362 178.347C234.139 178.291 233.003 178.979 232.485 180.088C231.967 181.198 232.169 182.51 232.997 183.412C234.126 184.631 236.025 184.717 237.26 183.605Z" fill="#32D697"/>
<path fill-rule="evenodd" clip-rule="evenodd" d="M80.1179 188.379C79.7563 187.639 79.158 187.041 78.4179 186.679H78.2289L61.0669 176.644C59.476 175.791 57.5638 175.791 55.9729 176.644L39.1839 186.295C38.4209 186.776 37.7759 187.423 37.2969 188.188C36.849 189.003 36.5909 189.909 36.5419 190.838V212.038C36.5143 213.924 37.5301 215.672 39.1829 216.581L55.4029 226.044C57.3542 227.308 59.8656 227.308 61.8169 226.044L78.0379 216.581C79.6907 215.672 80.7066 213.924 80.6789 212.038V190.838C80.6734 189.987 80.4819 189.148 80.1179 188.379V188.379Z" stroke="#707070" stroke-width="2" stroke-linecap="round" stroke-linejoin="round"/>
<path d="M202.157 50.2139L50.693 205.978" stroke="#707070" stroke-width="2" stroke-linecap="round" stroke-linejoin="round" stroke-dasharray="0.5"/>
<path d="M48.052 208.629V208.818" stroke="#707070" stroke-width="2" stroke-linecap="round" stroke-linejoin="round"/>
<path d="M53.334 50.2139L204.605 205.978" stroke="#707070" stroke-width="2" stroke-linecap="round" stroke-linejoin="round" stroke-dasharray="0.5"/>
<path d="M207.246 208.629V208.818" stroke="#707070" stroke-width="2" stroke-linecap="round" stroke-linejoin="round"/>
<path d="M126.711 23.7168L129.541 241.37" stroke="#707070" stroke-width="2" stroke-linecap="round" stroke-linejoin="round" stroke-dasharray="0.5"/>
<path d="M13.536 125.352H13.725" stroke="#707070" stroke-width="2" stroke-linecap="round" stroke-linejoin="round"/>
<path d="M21.08 125.54L237.991 128.19" stroke="#707070" stroke-width="2" stroke-linecap="round" stroke-linejoin="round" stroke-dasharray="0.5"/>
<path d="M241.576 128.187H241.765" stroke="#707070" stroke-width="2" stroke-linecap="round" stroke-linejoin="round"/>
<path d="M80.6839 191.026V212.226C80.7115 214.112 79.6957 215.859 78.0429 216.769L61.8219 226.234C59.8697 227.494 57.3602 227.494 55.4079 226.234L39.1879 216.769C37.5351 215.859 36.5193 214.112 36.5469 212.226V191.026C36.5056 190.084 36.7705 189.154 37.3019 188.376C37.7272 187.57 38.3847 186.912 39.1889 186.485L55.9749 176.832C57.5413 175.886 59.5025 175.886 61.0689 176.832H61.2579L78.0439 186.674C78.0944 186.673 78.1431 186.692 78.1788 186.728C78.2145 186.763 78.234 186.812 78.2329 186.863H78.4219C79.1213 187.279 79.7057 187.863 80.1219 188.563C80.5284 189.318 80.7227 190.169 80.6839 191.026Z" fill="#2A2E38"/>
<path d="M80.684 191.026V212.226C80.7116 214.112 79.6958 215.86 78.043 216.769L61.822 226.232C60.857 226.829 59.7495 227.156 58.615 227.18V200.68L80.115 188.38C80.5016 189.208 80.6961 190.112 80.684 191.026Z" fill="#303440"/>
<path d="M58.615 200.68V227.18C57.4804 227.156 56.373 226.829 55.408 226.232L39.188 216.769C37.5352 215.86 36.5194 214.112 36.547 212.226V191.026C36.5053 190.084 36.7703 189.154 37.302 188.376L58.615 200.68Z" fill="#555C72"/>
<path d="M80.1179 188.376L58.6179 200.676L37.1179 188.184C37.5438 187.379 38.201 186.719 39.0049 186.291L55.7909 176.64C57.3567 175.692 59.3191 175.692 60.8849 176.64L78.0489 186.671H78.2379C79.0281 187.028 79.6859 187.624 80.1179 188.376Z" fill="#70778A"/>
<path fill-rule="evenodd" clip-rule="evenodd" d="M50.415 207.594L50.224 206.459C50.1805 204.493 49.1053 202.696 47.394 201.728C45.887 200.969 44.755 201.537 44.755 203.241V204.377H44.566C44.3551 204.201 44.0604 204.167 43.8151 204.29C43.5697 204.413 43.4202 204.669 43.434 204.943V209.108C43.489 210.329 44.1197 211.452 45.134 212.135L49.471 214.596C50.414 215.164 51.171 214.785 51.171 213.651V209.486C51.547 208.919 50.981 207.973 50.415 207.594ZM48.151 210.812C48.138 211.015 47.9768 211.177 47.774 211.191H47.585C47.2308 211.009 47.0111 210.642 47.019 210.244V208.919C47.019 208.542 47.208 208.353 47.585 208.542C47.939 208.723 48.1587 209.09 48.151 209.488V210.812ZM45.889 205.135L49.094 207.028L49.098 205.892C48.9831 204.838 48.4368 203.878 47.589 203.242C46.644 202.674 45.889 203.054 45.889 203.999V205.135Z" fill="#9CA5BA"/>
<path fill-rule="evenodd" clip-rule="evenodd" d="M45.41 114.375C45.0472 113.635 44.4492 113.038 43.71 112.675H43.521L26.355 102.644C24.7645 101.792 22.8535 101.792 21.263 102.644L4.47698 112.297C3.7136 112.777 3.06855 113.423 2.58998 114.188C2.07847 115.046 1.81697 116.03 1.83498 117.029V138.229C1.80736 140.115 2.82319 141.862 4.47598 142.772L20.697 152.235C22.6485 153.495 25.1575 153.495 27.109 152.235L43.332 142.772C44.984 141.862 45.999 140.114 45.971 138.229V117.029C46.1742 116.105 45.9698 115.138 45.41 114.375Z" stroke="#707070" stroke-width="2" stroke-linecap="round" stroke-linejoin="round"/>
<path d="M46.1649 117.025V138.225C46.193 140.111 45.178 141.858 43.5259 142.768L27.3029 152.231C25.3514 153.491 22.8424 153.491 20.8909 152.231L4.66795 142.768C2.89868 142.061 1.76595 140.318 1.83995 138.414V117.215C1.79831 116.273 2.06323 115.343 2.59495 114.565C3.02089 113.76 3.67809 113.1 4.48195 112.672L21.2679 103.021C22.833 102.073 24.7949 102.073 26.3599 103.021H26.5489L43.3369 112.861C43.3878 112.86 43.4368 112.88 43.4725 112.916C43.5083 112.952 43.5276 113.001 43.5259 113.052H43.7149C44.4148 113.468 44.9993 114.052 45.4149 114.752C45.996 115.357 46.2718 116.193 46.1649 117.025Z" fill="#2A2E38"/>
<path d="M46.166 117.025V138.225C46.1929 140.11 45.1781 141.856 43.527 142.765L27.309 152.228C26.3445 152.824 25.2377 153.151 24.104 153.173V126.673L45.604 114.373C45.9893 115.203 46.1814 116.11 46.166 117.025Z" fill="#303440"/>
<path d="M24.098 126.865V153.365C22.9637 153.343 21.8562 153.016 20.891 152.42L4.668 142.957C2.9152 142.129 1.80905 140.352 1.84 138.414V117.214C1.79808 116.272 2.06302 115.342 2.595 114.564L24.098 126.865Z" fill="#555C72"/>
<path d="M45.4109 114.376L23.9109 126.676L2.59692 114.376C3.02162 113.57 3.67915 112.91 4.48392 112.483L21.2699 102.83C22.8356 101.884 24.7963 101.884 26.3619 102.83L43.5279 112.861H43.7169C44.4785 113.089 45.0992 113.644 45.4109 114.376Z" fill="#70778A"/>
<path fill-rule="evenodd" clip-rule="evenodd" d="M15.711 133.782V132.646C15.6669 130.681 14.5918 128.883 12.881 127.915C11.372 126.97 10.24 127.726 10.24 129.431V130.565H10.051C9.83955 130.39 9.5449 130.357 9.29975 130.48C9.0546 130.603 8.90524 130.859 8.91896 131.133V135.296C8.97336 136.518 9.60412 137.642 10.619 138.325L14.958 140.786C15.901 141.354 16.658 140.975 16.658 139.838V135.675C16.8369 134.899 16.4396 134.104 15.711 133.782ZM13.447 136.811C13.433 137.013 13.2721 137.174 13.07 137.188H12.881C12.5273 137.007 12.3076 136.64 12.315 136.243V134.918C12.315 134.539 12.504 134.35 12.881 134.539C13.235 134.721 13.4545 135.089 13.447 135.487V136.811ZM11.372 131.131L14.579 133.024L14.581 131.888C14.4657 130.834 13.9195 129.875 13.072 129.238C12.127 128.67 11.372 129.05 11.372 129.995V131.131Z" fill="#9CA5BA"/>
<path fill-rule="evenodd" clip-rule="evenodd" d="M244.594 115.132C244.231 114.393 243.633 113.795 242.894 113.432H242.705L225.539 103.401C223.948 102.549 222.037 102.549 220.447 103.401L203.668 113.052C202.904 113.532 202.259 114.179 201.781 114.943C201.333 115.758 201.075 116.664 201.026 117.593V138.793C200.998 140.679 202.014 142.427 203.667 143.336L219.887 152.801C221.838 154.061 224.347 154.061 226.299 152.801L242.522 143.336C244.174 142.426 245.189 140.679 245.161 138.793V117.782C245.173 116.867 244.98 115.962 244.594 115.132V115.132Z" stroke="#707070" stroke-width="2" stroke-linecap="round" stroke-linejoin="round"/>
<path d="M245.158 117.782V138.982C245.186 140.867 244.171 142.615 242.519 143.525L226.296 152.988C224.344 154.248 221.835 154.248 219.884 152.988L203.664 143.525C202.011 142.615 200.995 140.868 201.023 138.982V117.782C200.981 116.84 201.246 115.91 201.778 115.132C202.204 114.326 202.861 113.667 203.665 113.239L220.451 103.586C222.017 102.64 223.977 102.64 225.543 103.586H225.732L242.52 113.428C242.571 113.426 242.62 113.446 242.656 113.482C242.691 113.519 242.711 113.568 242.709 113.619H242.898C243.598 114.034 244.183 114.619 244.598 115.319C245.003 116.074 245.196 116.925 245.158 117.782Z" fill="#2A2E38"/>
<path d="M245.158 117.782V138.982C245.186 140.868 244.171 142.615 242.519 143.525L226.296 152.989C225.331 153.585 224.225 153.911 223.091 153.934V127.434L244.591 115.134C244.977 115.962 245.171 116.868 245.158 117.782Z" fill="#303440"/>
<path d="M223.091 127.433V153.933C221.957 153.91 220.849 153.584 219.884 152.988L203.664 143.525C202.011 142.615 200.995 140.868 201.023 138.982V117.782C200.981 116.84 201.246 115.91 201.778 115.132L223.091 127.433Z" fill="#555C72"/>
<path d="M244.592 115.132L223.092 127.432L201.592 114.94C202.017 114.135 202.675 113.476 203.479 113.049L220.265 103.396C221.831 102.45 223.791 102.45 225.357 103.396L242.523 113.427H242.712C243.537 113.729 244.211 114.34 244.592 115.132Z" fill="#70778A"/>
<path fill-rule="evenodd" clip-rule="evenodd" d="M214.892 134.35L214.703 133.214C214.659 131.248 213.584 129.451 211.873 128.483C210.364 127.726 209.232 128.294 209.232 129.997V131.133H209.043C208.832 130.958 208.537 130.925 208.292 131.048C208.047 131.171 207.897 131.427 207.911 131.701V135.868C207.965 137.09 208.596 138.214 209.611 138.897L213.95 141.356C214.893 141.924 215.65 141.547 215.65 140.411V136.248C216.022 135.675 215.456 134.728 214.892 134.35ZM212.628 137.568C212.614 137.77 212.453 137.931 212.251 137.945H212.062C211.708 137.764 211.489 137.397 211.496 137V135.675C211.496 135.296 211.685 135.107 212.062 135.296C212.416 135.478 212.636 135.846 212.628 136.244V137.568ZM210.364 131.7L213.571 133.593H213.573V132.646C213.458 131.592 212.912 130.633 212.064 129.996C211.119 129.428 210.364 129.807 210.364 130.753V131.7Z" fill="#9CA5BA"/>
<path fill-rule="evenodd" clip-rule="evenodd" d="M209.136 44.1587C208.774 43.4188 208.176 42.8206 207.436 42.4587H207.247L190.083 32.4277C188.493 31.5749 186.581 31.5749 184.991 32.4277L168.202 42.0787C167.439 42.5603 166.795 43.2072 166.316 43.9717C165.868 44.7869 165.61 45.6928 165.561 46.6217V67.8217C165.533 69.7079 166.549 71.4553 168.202 72.3647L184.425 81.8277C186.376 83.0905 188.886 83.0905 190.837 81.8277L207.057 72.3647C208.71 71.4553 209.726 69.7079 209.698 67.8217V46.8067C209.805 45.8863 209.608 44.9561 209.136 44.1587Z" stroke="#707070" stroke-width="2" stroke-linecap="round" stroke-linejoin="round"/>
<path d="M209.888 46.8079V68.0079C209.916 69.8941 208.9 71.6415 207.247 72.5509L191.027 82.0139C189.075 83.2742 186.565 83.2742 184.613 82.0139L168.393 72.5509C166.74 71.6415 165.724 69.8941 165.752 68.0079V46.8079C165.71 45.8661 165.975 44.9361 166.507 44.1579C166.932 43.3522 167.59 42.6927 168.394 42.2649L185.18 32.6119C186.746 31.6665 188.708 31.6665 190.274 32.6119H190.463L207.249 42.4539C207.299 42.4528 207.348 42.4724 207.384 42.508C207.42 42.5437 207.439 42.5924 207.438 42.6429H207.627C208.326 43.0591 208.911 43.6434 209.327 44.3429C209.645 45.129 209.835 45.9614 209.888 46.8079Z" fill="#2A2E38"/>
<path d="M209.887 46.8077V68.0077C209.913 69.8929 208.898 71.6389 207.246 72.5477L191.026 82.0127C190.061 82.6089 188.953 82.9353 187.819 82.9577V56.4577L209.319 44.1577C209.618 45.0141 209.808 45.9042 209.887 46.8077Z" fill="#303440"/>
<path d="M187.63 56.4587V82.9587C186.496 82.9362 185.389 82.6099 184.425 82.0137L168.202 72.5487C166.55 71.6398 165.534 69.8939 165.561 68.0087V46.8087C165.519 45.8669 165.784 44.9369 166.316 44.1587L187.63 56.4587Z" fill="#555C72"/>
<path d="M209.135 44.159L187.635 56.459L166.135 43.967C166.56 43.162 167.217 42.5032 168.021 42.076L184.802 32.424C186.368 31.4785 188.328 31.4785 189.894 32.424L207.058 42.455H207.247C208.074 42.7559 208.751 43.3671 209.135 44.159Z" fill="#70778A"/>
<path fill-rule="evenodd" clip-rule="evenodd" d="M180.188 65.2686C180.562 64.7006 179.996 63.7536 179.43 63.3756L179.241 62.2396C179.197 60.274 178.122 58.4766 176.411 57.5086C174.904 56.7516 173.772 57.3196 173.772 59.0226V60.1586H173.583C173.372 59.9839 173.077 59.9505 172.832 60.0735C172.587 60.1965 172.437 60.4527 172.451 60.7266V64.8896C172.505 66.1117 173.136 67.2356 174.151 67.9186L178.488 70.3776C179.431 70.9456 180.188 70.5686 180.188 69.4316V65.2686ZM177.166 66.5936C177.152 66.7958 176.991 66.9566 176.789 66.9706H176.6C176.246 66.7896 176.027 66.4229 176.034 66.0256V64.5096C176.034 64.1326 176.223 63.9436 176.6 64.1326C176.954 64.314 177.173 64.6811 177.166 65.0786V66.5936ZM174.909 60.9146L178.109 62.8076L178.118 62.8046V61.6686C178.003 60.6148 177.456 59.6556 176.609 59.0186C175.664 58.4506 174.909 58.8306 174.909 59.7756V60.9146Z" fill="#9CA5BA"/>
<path fill-rule="evenodd" clip-rule="evenodd" d="M148.398 13.6857C148.035 12.9463 147.437 12.3484 146.698 11.9857H146.509L129.345 1.95473C127.754 1.10298 125.843 1.10298 124.253 1.95473L107.464 11.6077C106.701 12.0879 106.055 12.7343 105.577 13.4987C105.066 14.3571 104.806 15.3411 104.825 16.3397V37.5397C104.797 39.4255 105.812 41.1728 107.464 42.0827L123.687 51.5457C125.638 52.8062 128.147 52.8062 130.099 51.5457L146.32 42.0827C147.973 41.1734 148.989 39.426 148.961 37.5397V16.3397C149.069 15.4173 148.872 14.4847 148.398 13.6857Z" stroke="#707070" stroke-width="2" stroke-linecap="round" stroke-linejoin="round"/>
<path d="M149.152 16.3368V37.5368C149.178 39.4219 148.163 41.1679 146.511 42.0768L130.291 51.5418C128.339 52.8021 125.829 52.8021 123.877 51.5418L107.652 42.0748C106 41.1659 104.984 39.4199 105.011 37.5348V16.3348C104.969 15.393 105.234 14.463 105.766 13.6848C106.19 12.8788 106.848 12.2192 107.652 11.7918L124.438 2.13875C126.004 1.19333 127.966 1.19333 129.532 2.13875H129.721L146.507 11.9808C146.557 11.9797 146.606 11.9992 146.642 12.0349C146.677 12.0706 146.697 12.1193 146.696 12.1698H146.885C147.584 12.586 148.169 13.1703 148.585 13.8698C148.906 14.6562 149.097 15.4893 149.152 16.3368Z" fill="#2A2E38"/>
<path d="M149.152 16.337V37.537C149.178 39.4222 148.163 41.1682 146.511 42.077L130.291 51.542C129.326 52.1382 128.218 52.4646 127.084 52.487V25.987L148.584 13.687C148.882 14.5434 149.073 15.4335 149.152 16.337Z" fill="#303440"/>
<path d="M126.895 25.988V52.488C125.763 52.4647 124.658 52.1384 123.695 51.543L107.472 42.078C105.821 41.1686 104.806 39.4227 104.833 37.538V16.338C104.79 15.3965 105.054 14.4666 105.585 13.688L126.895 25.988Z" fill="#555C72"/>
<path d="M148.397 13.6868L126.897 25.9868L105.583 13.4968C106.008 12.6907 106.665 12.031 107.47 11.6038L124.259 1.95084C125.825 1.00532 127.785 1.00532 129.351 1.95084L146.515 11.9818H146.704C147.442 12.347 148.037 12.9467 148.397 13.6868Z" fill="#70778A"/>
<path fill-rule="evenodd" clip-rule="evenodd" d="M118.693 32.9039L118.504 31.7679C118.461 29.8024 117.385 28.0049 115.674 27.0369C114.167 26.2799 113.035 26.8479 113.035 28.5509V29.6869H112.846C112.635 29.5122 112.34 29.4788 112.095 29.6018C111.85 29.7248 111.7 29.981 111.714 30.2549V34.4179C111.769 35.64 112.399 36.7638 113.414 37.4469L117.751 39.9059C118.694 40.4739 119.451 40.0969 119.451 38.9609V34.7979C119.827 34.2289 119.261 33.2789 118.693 32.9039ZM116.429 36.1219C116.415 36.3241 116.254 36.485 116.052 36.4989H115.863C115.51 36.3175 115.291 35.9508 115.299 35.5539V34.0379C115.299 33.6609 115.486 33.4719 115.863 33.6609C116.217 33.8423 116.436 34.2094 116.429 34.6069V36.1219ZM114.167 30.2549L117.372 32.1479L117.376 31.0119C117.261 29.9579 116.715 28.9986 115.867 28.3619C114.922 27.7939 114.167 28.1739 114.167 29.1189V30.2549Z" fill="#9CA5BA"/>
<path fill-rule="evenodd" clip-rule="evenodd" d="M150.848 214.874C150.486 214.133 149.888 213.535 149.148 213.174H148.959L131.799 203.141C130.208 202.288 128.296 202.288 126.705 203.141L109.919 212.792C109.156 213.273 108.512 213.92 108.033 214.685C107.585 215.5 107.327 216.406 107.278 217.335V238.535C107.25 240.421 108.266 242.168 109.919 243.078L126.14 252.541C128.091 253.804 130.603 253.804 132.554 252.541L148.774 243.078C150.427 242.168 151.443 240.421 151.415 238.535V217.335C151.407 216.483 151.214 215.643 150.848 214.874V214.874Z" stroke="#707070" stroke-width="2" stroke-linecap="round" stroke-linejoin="round"/>
<path d="M151.416 217.525V238.725C151.443 240.61 150.427 242.357 148.775 243.266L132.555 252.731C130.603 253.991 128.093 253.991 126.141 252.731L109.92 243.266C108.268 242.357 107.252 240.61 107.279 238.725V217.525C107.237 216.583 107.502 215.653 108.034 214.875C108.458 214.069 109.115 213.409 109.92 212.982L126.706 203.329C128.272 202.383 130.234 202.383 131.8 203.329H131.989L148.775 213.171C148.825 213.17 148.874 213.189 148.91 213.225C148.946 213.261 148.965 213.309 148.964 213.36H149.153C149.852 213.776 150.437 214.36 150.853 215.06C151.26 215.816 151.455 216.667 151.416 217.525Z" fill="#2A2E38"/>
<path d="M151.416 217.523V238.723C151.444 240.609 150.428 242.357 148.775 243.266L132.555 252.729C131.59 253.326 130.483 253.653 129.348 253.677V227.177L150.848 214.877C151.234 215.705 151.428 216.609 151.416 217.523Z" fill="#303440"/>
<path d="M129.348 227.177V253.677C128.213 253.654 127.106 253.326 126.141 252.729L109.92 243.266C108.267 242.357 107.251 240.609 107.279 238.723V217.523C107.237 216.581 107.502 215.651 108.034 214.873L129.348 227.177Z" fill="#555C72"/>
<path d="M150.847 214.873L129.347 227.173L107.847 214.681C108.273 213.876 108.93 213.217 109.734 212.788L126.52 203.137C128.086 202.189 130.048 202.189 131.614 203.137L148.778 213.168H148.967C149.792 213.47 150.466 214.082 150.847 214.873Z" fill="#70778A"/>
<path fill-rule="evenodd" clip-rule="evenodd" d="M121.147 234.093L120.958 232.957C120.915 230.991 119.839 229.194 118.128 228.226C116.619 227.469 115.489 228.035 115.489 229.739V230.875H115.3C115.089 230.7 114.794 230.667 114.549 230.79C114.304 230.913 114.154 231.169 114.168 231.443V235.606C114.222 236.827 114.853 237.951 115.868 238.633L120.205 241.094C121.148 241.662 121.905 241.283 121.905 240.149V235.984C122.279 235.418 121.713 234.471 121.147 234.093ZM118.883 237.309C118.87 237.512 118.709 237.674 118.506 237.688H118.317C117.963 237.507 117.744 237.14 117.751 236.743V235.418C117.751 235.038 117.94 234.85 118.317 235.038C118.671 235.219 118.89 235.586 118.883 235.984V237.309ZM116.619 231.443L119.826 233.334L119.828 232.2C119.713 231.146 119.167 230.186 118.319 229.55C117.374 228.982 116.619 229.36 116.619 230.307V231.443Z" fill="#9CA5BA"/>
<path fill-rule="evenodd" clip-rule="evenodd" d="M216.111 180.428C215.749 179.688 215.151 179.09 214.411 178.728H214.223L197.06 168.695C195.47 167.842 193.558 167.842 191.968 168.695L175.18 178.345C174.418 178.827 173.774 179.474 173.295 180.238C172.847 181.053 172.589 181.959 172.54 182.888V204.088C172.512 205.974 173.527 207.721 175.179 208.631L191.401 218.094C193.352 219.357 195.862 219.357 197.813 218.094L214.036 208.631C215.688 207.721 216.703 205.974 216.675 204.088V183.077C216.856 182.154 216.652 181.197 216.111 180.428V180.428Z" stroke="#707070" stroke-width="2" stroke-linecap="round" stroke-linejoin="round"/>
<path d="M216.866 183.076V204.276C216.892 206.162 215.876 207.908 214.223 208.817L198 218.28C196.049 219.543 193.539 219.543 191.588 218.28L175.365 208.817C173.713 207.907 172.698 206.16 172.726 204.274V183.074C172.684 182.132 172.949 181.202 173.481 180.424C173.907 179.619 174.563 178.96 175.366 178.531L192.154 168.88C193.719 167.932 195.681 167.932 197.246 168.88H197.435L214.223 178.725C214.273 178.724 214.322 178.743 214.358 178.779C214.393 178.815 214.413 178.863 214.412 178.914H214.601C215.3 179.33 215.884 179.915 216.301 180.614C216.687 181.376 216.881 182.221 216.866 183.076Z" fill="#2A2E38"/>
<path d="M216.866 183.082V204.282C216.893 206.167 215.877 207.914 214.225 208.823L198.005 218.288C197.04 218.884 195.932 219.21 194.798 219.233V192.733L216.298 180.433C216.666 181.268 216.859 182.169 216.866 183.082Z" fill="#303440"/>
<path d="M194.799 192.919V219.419C193.665 219.396 192.557 219.07 191.592 218.474L175.369 209.011C173.717 208.101 172.702 206.353 172.73 204.468V183.268C172.688 182.326 172.953 181.396 173.485 180.618L194.799 192.919Z" fill="#555C72"/>
<path d="M216.111 180.427L194.611 192.727L173.111 180.235C173.536 179.43 174.192 178.771 174.995 178.342L191.784 168.691C193.349 167.743 195.311 167.743 196.876 168.691L214.04 178.722H214.229C215.017 179.083 215.674 179.678 216.111 180.427Z" fill="#70778A"/>
<path fill-rule="evenodd" clip-rule="evenodd" d="M186.597 199.836L186.408 198.7C186.365 196.734 185.291 194.937 183.58 193.969C182.071 193.212 180.939 193.78 180.939 195.483V196.619H180.75C180.539 196.444 180.244 196.41 179.999 196.533C179.754 196.656 179.604 196.913 179.618 197.187V201.35C179.672 202.572 180.303 203.696 181.318 204.379L185.655 206.838C186.598 207.406 187.355 207.029 187.355 205.893V201.73C187.611 200.998 187.288 200.189 186.597 199.836ZM184.335 202.863C184.322 203.066 184.161 203.227 183.958 203.242H183.769C183.415 203.06 183.195 202.692 183.203 202.295V200.97C183.203 200.593 183.392 200.404 183.769 200.593C184.123 200.774 184.342 201.141 184.335 201.539V202.861V202.863ZM182.071 197.186L185.278 199.079H185.28V197.943C185.165 196.889 184.619 195.929 183.771 195.293C182.826 194.725 182.071 195.105 182.071 196.05V197.186Z" fill="#9CA5BA"/>
<path fill-rule="evenodd" clip-rule="evenodd" d="M80.1179 42.6416C79.7563 41.9015 79.158 41.3033 78.4179 40.9416H78.2289L61.0669 30.9096C59.476 30.0568 57.5638 30.0568 55.9729 30.9096L39.1839 40.5596C38.4209 41.041 37.7759 41.688 37.2969 42.4526C36.849 43.2679 36.5909 44.1737 36.5419 45.1026V66.3026C36.5143 68.1889 37.5301 69.9363 39.1829 70.8456L55.4029 80.3086C57.3542 81.5722 59.8656 81.5722 61.8169 80.3086L78.0379 70.8456C79.6907 69.9363 80.7066 68.1889 80.6789 66.3026V45.4826C80.7681 44.5014 80.5734 43.5153 80.1179 42.6416Z" stroke="#707070" stroke-width="2" stroke-linecap="round" stroke-linejoin="round"/>
<path d="M80.8719 45.4837V66.6837C80.8984 68.5688 79.8827 70.3148 78.2309 71.2237L62.0109 80.6887C60.0587 81.949 57.5492 81.949 55.5969 80.6887L39.3749 71.2237C37.7231 70.3148 36.7074 68.5688 36.7339 66.6837V45.4837C36.692 44.5419 36.9569 43.612 37.4889 42.8337C37.9143 42.028 38.5716 41.3686 39.3759 40.9407L56.1619 31.2877C57.7283 30.3423 59.6895 30.3423 61.2559 31.2877H61.4449L78.2309 41.1297C78.2814 41.1286 78.3301 41.1481 78.3658 41.1838C78.4015 41.2195 78.421 41.2682 78.4199 41.3187H78.6089C79.3084 41.7348 79.8928 42.3192 80.3089 43.0187C80.628 43.8047 80.8182 44.6371 80.8719 45.4837Z" fill="#2A2E38"/>
<path d="M80.872 45.483V66.683C80.8996 68.5692 79.8837 70.3166 78.231 71.226L62.011 80.689C61.0457 81.2852 59.9382 81.6115 58.804 81.634V55.134L80.304 42.834C80.6024 43.69 80.7932 44.5798 80.872 45.483Z" fill="#303440"/>
<path d="M58.615 55.134V81.634C57.4807 81.6116 56.3732 81.2852 55.408 80.689L39.188 71.226C37.5352 70.3167 36.5194 68.5692 36.547 66.683V45.483C36.5051 44.5412 36.7701 43.6113 37.302 42.833L58.615 55.134Z" fill="#555C72"/>
<path d="M80.1179 42.6421L58.6179 54.9421L37.1179 42.4501C37.5438 41.6448 38.201 40.9855 39.0049 40.5571L55.7909 30.9061C57.3567 29.9584 59.3191 29.9584 60.8849 30.9061L78.0489 40.9371H78.2379C79.0249 41.2987 79.6814 41.894 80.1179 42.6421Z" fill="#70778A"/>
<path fill-rule="evenodd" clip-rule="evenodd" d="M50.4149 62.0509L50.2259 60.9149C50.1825 58.9493 49.1072 57.1518 47.3959 56.1839C45.8889 55.4269 44.7569 55.9949 44.7569 57.6979V58.8339H44.5679C44.3565 58.6592 44.0619 58.6258 43.8167 58.7488C43.5716 58.8718 43.4222 59.128 43.4359 59.4019V63.5649C43.4903 64.787 44.1211 65.9109 45.1359 66.5939L49.4729 69.0529C50.4159 69.6209 51.1729 69.2439 51.1729 68.1069V63.9439C51.5469 63.3759 50.9809 62.4289 50.4149 62.0509ZM48.1509 65.0779C48.1379 65.2808 47.9768 65.4428 47.7739 65.4569H47.5849C47.2306 65.2751 47.0109 64.9071 47.0189 64.5089V63.1839C47.0189 62.8069 47.2079 62.6179 47.5849 62.8069C47.9388 62.9883 48.1584 63.3554 48.1509 63.7529V65.0779ZM45.8889 59.4009L49.0939 61.2939L49.0979 60.1579C48.9831 59.1039 48.4368 58.1445 47.5889 57.5079C46.6439 56.9399 45.8889 57.3199 45.8889 58.2649V59.4009Z" fill="#9CA5BA"/>
<path d="M124.631 171.341C142.558 171.404 158.754 160.654 165.658 144.11C172.562 127.566 168.811 108.492 156.157 95.7932C143.504 83.095 124.443 79.2775 107.875 86.1234C91.3065 92.9692 80.4996 109.128 80.4999 127.055C80.459 151.47 100.216 171.296 124.631 171.341Z" fill="#373D4C"/>
<path d="M164.807 127.056C164.695 144.719 153.028 160.224 136.088 165.225C119.147 170.226 100.93 163.542 91.2437 148.772C81.557 134.002 82.6864 114.63 94.0239 101.086C105.361 87.5414 124.231 83.0201 140.476 89.9558C155.261 96.3618 164.823 110.943 164.807 127.056Z" fill="#474E61"/>
<path d="M137.647 169.64C137.186 169.603 136.737 169.473 136.326 169.26C135.87 168.912 135.573 168.395 135.502 167.825C135.431 167.256 135.592 166.682 135.949 166.233C136.851 164.949 137.861 163.745 138.967 162.633C146.7 154.875 151.228 141.433 151.228 127.053C151.228 112.673 146.7 99.4198 138.967 91.4708C138.024 90.5258 137.267 89.5778 136.326 88.6328C135.853 88.0254 135.739 87.2116 136.029 86.498C136.318 85.7844 136.966 85.2793 137.729 85.173C138.491 85.0667 139.253 85.3754 139.726 85.9828C140.433 86.845 141.189 87.666 141.99 88.4418C150.478 97.1498 155.569 111.533 155.569 127.054C155.569 142.575 150.477 156.954 141.99 165.663C141.056 166.624 140.175 167.636 139.349 168.692C139.017 169.314 138.351 169.685 137.647 169.64Z" fill="#373D4C"/>
<path d="M110.862 168.504C110.207 168.539 109.574 168.258 109.162 167.747C108.643 167.075 108.075 166.442 107.462 165.854C98.975 157.148 93.881 142.763 93.881 127.245C93.881 111.727 98.975 97.345 107.462 88.636C108.028 88.068 108.594 87.311 109.162 86.743C109.635 86.1357 110.397 85.827 111.159 85.9333C111.922 86.0395 112.57 86.5446 112.859 87.2583C113.149 87.9719 113.035 88.7857 112.562 89.393C111.923 90.1958 111.229 90.9543 110.487 91.663C102.754 99.423 98.038 112.672 98.038 127.057C98.038 141.442 102.566 154.688 110.487 162.637C111.242 163.396 111.808 164.153 112.562 164.909C112.919 165.358 113.08 165.932 113.009 166.502C112.938 167.071 112.641 167.588 112.185 167.936C111.828 168.281 111.358 168.483 110.862 168.504Z" fill="#373D4C"/>
<path d="M124.631 171.153C123.386 171.132 122.384 170.125 122.369 168.881V85.2257C122.385 83.9818 123.387 82.9762 124.631 82.9557C125.239 82.9323 125.83 83.1642 126.26 83.5952C126.69 84.0263 126.92 84.6174 126.895 85.2257V168.881C126.92 169.489 126.69 170.08 126.26 170.512C125.83 170.943 125.24 171.176 124.631 171.153Z" fill="#373D4C"/>
<path d="M161.79 113.996H87.4729C86.2184 113.996 85.2014 112.979 85.2014 111.724C85.2014 110.47 86.2184 109.453 87.4729 109.453H161.79C163.034 109.473 164.037 110.48 164.052 111.725C164.077 112.333 163.848 112.924 163.418 113.355C162.989 113.787 162.398 114.019 161.79 113.996Z" fill="#373D4C"/>
<path d="M161.79 144.656H87.473C86.2284 144.636 85.2251 143.63 85.209 142.386C85.184 141.777 85.4143 141.186 85.8441 140.755C86.274 140.323 86.8644 140.091 87.473 140.114H161.79C163.035 140.134 164.037 141.141 164.052 142.386C164.077 142.994 163.847 143.585 163.418 144.016C162.988 144.447 162.398 144.679 161.79 144.656Z" fill="#373D4C"/>
<path d="M97.0929 136.329C94.6412 136.337 92.4264 134.866 91.4826 132.604C90.5389 130.341 91.0523 127.732 92.7833 125.996C94.5142 124.259 97.1211 123.738 99.3869 124.674C101.653 125.611 103.13 127.821 103.13 130.273C103.154 131.883 102.526 133.434 101.389 134.575C100.252 135.715 98.703 136.348 97.0929 136.329Z" fill="#56E090"/>
<path d="M135.006 107.183C132.631 107.191 130.485 105.766 129.57 103.574C128.656 101.382 129.153 98.8551 130.83 97.1727C132.506 95.4904 135.032 94.9846 137.227 95.8917C139.422 96.7988 140.854 98.9397 140.854 101.315C140.844 104.544 138.235 107.162 135.006 107.183Z" fill="#56E090"/>
<path d="M141.985 154.12C139.533 154.129 137.318 152.659 136.373 150.396C135.429 148.133 135.942 145.524 137.673 143.788C139.403 142.051 142.01 141.529 144.276 142.465C146.542 143.402 148.02 145.612 148.02 148.064C148.003 151.393 145.314 154.091 141.985 154.12Z" fill="#56E090"/>
<path fill-rule="evenodd" clip-rule="evenodd" d="M139.914 156.39H140.291L140.289 156.391C140.853 156.391 141.23 156.202 141.234 155.826C141.328 155.542 141.423 155.21 141.517 154.879C141.611 154.548 141.705 154.217 141.8 153.933C141.912 153.558 141.813 153.153 141.541 152.873C141.268 152.592 140.865 152.482 140.488 152.584C140.111 152.687 139.819 152.985 139.725 153.365L139.159 155.065C139.083 155.341 139.12 155.635 139.261 155.884C139.403 156.133 139.638 156.315 139.914 156.39ZM138.027 162.635C137.838 162.635 137.65 162.635 137.65 162.446C137.137 162.227 136.887 161.643 137.084 161.121C137.179 160.835 137.322 160.55 137.464 160.265L137.464 160.265C137.605 159.983 137.745 159.701 137.839 159.421C138.048 158.9 138.64 158.647 139.161 158.856C139.682 159.065 139.935 159.657 139.726 160.178C139.631 160.462 139.489 160.747 139.347 161.031L139.347 161.031C139.206 161.313 139.065 161.595 138.971 161.878C138.874 162.323 138.479 162.639 138.023 162.636L138.027 162.635ZM134.627 168.314C134.42 168.34 134.213 168.27 134.063 168.125C133.625 167.74 133.544 167.089 133.874 166.609C134.254 166.148 134.571 165.639 134.815 165.095C135.018 164.758 135.385 164.554 135.779 164.562C136.172 164.569 136.532 164.785 136.722 165.13C136.913 165.474 136.905 165.894 136.702 166.231C136.325 166.799 135.947 167.365 135.57 167.931C135.344 168.215 134.987 168.36 134.627 168.314Z" fill="#56E090"/>
<path fill-rule="evenodd" clip-rule="evenodd" d="M137.269 108.317C137.366 108.76 137.758 109.075 138.211 109.076C138.211 109.076 138.211 109.076 138.212 109.076H138.211M137.269 108.317C137.097 107.718 136.843 107.146 136.514 106.617L137.269 108.317ZM136.514 106.617C136.379 106.28 136.434 105.896 136.658 105.61L136.514 106.617ZM136.658 105.61C136.882 105.325 137.242 105.181 137.601 105.232L136.658 105.61ZM137.601 105.232C137.961 105.283 138.266 105.523 138.401 105.86L137.601 105.232ZM138.401 105.86C138.496 106.145 138.638 106.429 138.78 106.713L138.401 105.86ZM138.78 106.713C138.921 106.995 139.062 107.278 139.156 107.56L138.78 106.713ZM139.156 107.56C139.269 107.809 139.272 108.095 139.164 108.347L139.156 107.56ZM139.164 108.347C139.057 108.599 138.848 108.794 138.59 108.885L139.164 108.347ZM138.59 108.885C138.492 108.994 138.357 109.062 138.211 109.076L138.59 108.885ZM140.287 115.509C139.91 115.509 139.344 115.132 139.344 114.752C139.155 114.184 138.967 113.617 138.778 113.052C138.666 112.678 138.765 112.272 139.037 111.992C139.31 111.712 139.713 111.601 140.09 111.703C140.467 111.806 140.759 112.104 140.853 112.484C141.042 113.052 141.23 113.618 141.419 114.377C141.576 114.951 141.238 115.544 140.664 115.702C140.475 115.321 140.287 115.51 140.287 115.51V115.509ZM140.853 121.188C140.909 121.654 141.328 121.991 141.796 121.945C141.941 121.931 142.075 121.863 142.173 121.756C142.444 121.749 142.695 121.61 142.845 121.384C142.996 121.158 143.026 120.873 142.928 120.62C142.834 120.336 142.787 120.006 142.74 119.676C142.693 119.344 142.646 119.011 142.551 118.727C142.457 118.347 142.165 118.049 141.788 117.946C141.411 117.844 141.008 117.955 140.735 118.235C140.463 118.515 140.364 118.921 140.476 119.295C140.562 119.641 140.609 119.948 140.652 120.233C140.704 120.571 140.75 120.88 140.853 121.188ZM142.739 128.381C142.484 128.395 142.235 128.3 142.054 128.119C141.874 127.938 141.78 127.688 141.796 127.433C141.796 127.149 141.749 126.818 141.702 126.486C141.654 126.155 141.607 125.824 141.607 125.54C141.565 125.165 141.73 124.797 142.036 124.577C142.343 124.358 142.745 124.321 143.086 124.482C143.427 124.642 143.655 124.975 143.682 125.351C143.682 125.635 143.729 125.966 143.776 126.297C143.822 126.629 143.869 126.96 143.869 127.244C143.883 127.548 143.769 127.844 143.554 128.061C143.339 128.277 143.043 128.393 142.739 128.381ZM141.984 134.057C142.099 134.595 142.566 134.986 143.116 135.005C143.869 135.005 144.246 134.626 144.057 133.868V131.975C144.03 131.599 143.802 131.267 143.461 131.107C143.12 130.946 142.719 130.983 142.413 131.202C142.106 131.422 141.942 131.789 141.984 132.164V134.057ZM141.984 140.493C142.025 141.101 142.508 141.586 143.116 141.629C143.623 141.595 144.026 141.189 144.057 140.682C144.213 140.064 144.277 139.426 144.246 138.789C144.288 138.414 144.124 138.047 143.817 137.827C143.511 137.608 143.11 137.572 142.769 137.732C142.428 137.892 142.2 138.224 142.173 138.6C142.017 139.218 141.953 139.856 141.984 140.493Z" fill="#56E090"/>
<path fill-rule="evenodd" clip-rule="evenodd" d="M121.428 85.7918C121.579 85.9369 121.787 86.0064 121.994 85.9808L121.991 85.9848C122.365 85.9848 122.557 85.7968 122.749 85.4128C123.079 84.9333 122.998 84.2823 122.56 83.8988C122.092 83.4755 121.587 83.0953 121.051 82.7628C120.713 82.5606 120.293 82.5541 119.948 82.7458C119.604 82.9376 119.388 83.2984 119.382 83.6923C119.376 84.0863 119.581 84.4536 119.919 84.6558C120.204 84.8455 120.441 85.036 120.678 85.2267C120.912 85.415 121.147 85.6035 121.428 85.7918ZM126.894 90.3328C126.61 90.286 126.347 90.1546 126.139 89.9558C125.762 89.5768 125.196 89.0078 124.818 88.6308C124.423 88.2104 124.433 87.5523 124.84 87.1438C125.248 86.7353 125.906 86.7238 126.327 87.1178C126.704 87.4948 127.27 88.0628 127.648 88.4428C128.025 88.8766 128.025 89.522 127.648 89.9558C127.497 90.2235 127.199 90.3727 126.894 90.3328ZM131.045 95.4478C130.769 95.4478 130.594 95.3468 130.373 95.219C130.291 95.172 130.203 95.1213 130.102 95.0708C129.914 94.7868 129.725 94.5498 129.536 94.3128C129.347 94.0758 129.159 93.8388 128.97 93.5548C128.733 93.2511 128.677 92.8442 128.821 92.4874C128.966 92.1306 129.29 91.878 129.671 91.8249C130.053 91.7718 130.433 91.9261 130.67 92.2298C130.859 92.5138 131.047 92.7508 131.236 92.9878C131.425 93.2248 131.614 93.4618 131.802 93.7458C132.12 94.2283 132.04 94.8702 131.613 95.2598C131.462 95.4051 131.253 95.4743 131.045 95.4478Z" fill="#56E090"/>
<path fill-rule="evenodd" clip-rule="evenodd" d="M84.267 115.884C84.4464 116.238 84.8127 116.459 85.21 116.452H85.777C86.2022 116.156 86.3599 115.602 86.154 115.127C86.06 114.846 85.9195 114.565 85.7787 114.283C85.6365 113.998 85.494 113.712 85.399 113.427C85.2638 113.09 84.9593 112.851 84.6002 112.8C84.2411 112.749 83.882 112.893 83.6582 113.179C83.4343 113.464 83.3798 113.847 83.515 114.184C83.6866 114.782 83.9397 115.354 84.267 115.884ZM88.794 122.129C88.4983 122.123 88.2209 121.985 88.039 121.752C87.7084 121.214 87.3295 120.707 86.907 120.238C86.5411 119.768 86.625 119.091 87.0945 118.725C87.5639 118.359 88.2411 118.443 88.607 118.913C88.794 119.194 88.9812 119.428 89.1685 119.663L89.1685 119.663C89.3587 119.902 89.549 120.14 89.739 120.427C90.0566 120.909 89.9765 121.551 89.55 121.94C89.3291 121.943 89.1727 122.008 89.0435 122.062L89.0435 122.062C88.951 122.1 88.8724 122.133 88.794 122.133V122.129ZM93.133 127.051C92.8486 127.004 92.5852 126.871 92.378 126.671C91.8914 126.21 91.4491 125.705 91.057 125.162C90.6619 124.741 90.6717 124.083 91.0791 123.675C91.4865 123.266 92.1445 123.255 92.566 123.649C92.9582 124.136 93.401 124.58 93.887 124.974C94.2626 125.409 94.2626 126.053 93.887 126.488C93.51 127.051 93.322 127.051 93.133 127.051Z" fill="#56E090"/>
<path fill-rule="evenodd" clip-rule="evenodd" d="M105.014 137.086C105.164 137.231 105.372 137.3 105.58 137.275C105.957 137.275 106.146 137.087 106.33 136.518C106.599 135.99 106.438 135.345 105.953 135.005C105.434 134.715 104.931 134.398 104.444 134.057C103.921 133.745 103.245 133.916 102.932 134.438C102.62 134.961 102.791 135.638 103.314 135.95C103.881 136.328 104.448 136.707 105.014 137.086ZM111.24 140.493C111.032 140.518 110.824 140.449 110.674 140.304C110.391 140.114 110.108 139.972 109.825 139.83L109.825 139.83L109.825 139.83C109.541 139.688 109.258 139.546 108.974 139.356C108.531 139.083 108.38 138.51 108.633 138.055C108.885 137.6 109.451 137.424 109.917 137.656C110.201 137.845 110.484 137.987 110.769 138.13C111.051 138.271 111.334 138.413 111.617 138.601C111.877 138.69 112.077 138.901 112.152 139.165C112.227 139.429 112.168 139.713 111.994 139.926C111.997 140.304 111.617 140.493 111.24 140.493ZM116.897 143.143H117.274C117.672 143.15 118.038 142.93 118.218 142.575C118.331 142.325 118.334 142.04 118.226 141.788C118.119 141.536 117.91 141.341 117.652 141.25C117.367 141.155 117.083 141.013 116.799 140.87C116.516 140.729 116.234 140.587 115.952 140.493C115.614 140.358 115.229 140.414 114.944 140.639C114.658 140.865 114.514 141.225 114.566 141.586C114.618 141.946 114.859 142.251 115.197 142.386C115.482 142.481 115.766 142.623 116.05 142.765C116.332 142.907 116.615 143.049 116.897 143.143ZM123.497 145.413H123.124C122.558 145.224 121.992 145.036 121.237 144.847C120.714 144.638 120.459 144.046 120.668 143.523C120.876 143 121.469 142.745 121.992 142.954C122.558 143.143 123.125 143.332 123.692 143.522C123.968 143.597 124.203 143.779 124.345 144.028C124.486 144.276 124.523 144.571 124.447 144.847C124.441 145.227 124.064 145.413 123.497 145.413ZM129.724 147.306H129.912C130.404 147.294 130.846 146.999 131.045 146.549C131.121 146.273 131.084 145.978 130.943 145.73C130.801 145.481 130.566 145.299 130.29 145.224C129.644 145.208 129.005 145.081 128.403 144.847C127.833 144.704 127.254 145.044 127.1 145.61C126.946 146.177 127.273 146.763 127.837 146.929C128.481 146.963 129.116 147.09 129.724 147.306ZM135.475 148.347C135.805 148.395 136.135 148.442 136.513 148.442C137.021 148.408 137.424 148.003 137.457 147.496C137.502 146.924 137.084 146.421 136.514 146.36C135.879 146.391 135.243 146.327 134.627 146.171C134.255 146.137 133.893 146.304 133.678 146.61C133.463 146.915 133.427 147.312 133.584 147.651C133.74 147.989 134.066 148.219 134.438 148.253C134.815 148.253 135.145 148.3 135.475 148.347Z" fill="#56E090"/>
<path fill-rule="evenodd" clip-rule="evenodd" d="M161.978 144.656C162.157 145.01 162.524 145.231 162.921 145.224H163.488C163.771 145.036 164.054 144.894 164.336 144.753C164.62 144.61 164.904 144.468 165.188 144.279C165.587 143.965 165.739 143.431 165.565 142.954C165.272 142.527 164.719 142.368 164.244 142.574C163.961 142.669 163.678 142.811 163.396 142.952C163.111 143.094 162.828 143.236 162.544 143.331C162.286 143.422 162.078 143.618 161.971 143.869C161.863 144.121 161.866 144.406 161.978 144.656ZM156.695 147.496C156.318 147.496 155.752 147.117 155.752 146.739C155.676 146.463 155.713 146.168 155.854 145.92C155.996 145.671 156.231 145.489 156.507 145.414C157.073 145.223 157.64 145.034 158.207 144.846C158.777 144.703 159.356 145.043 159.51 145.609C159.664 146.176 159.337 146.762 158.773 146.928C158.495 147.021 158.172 147.113 157.847 147.206L157.847 147.206C157.511 147.302 157.174 147.399 156.886 147.496C156.885 147.305 156.696 147.496 156.696 147.496H156.695ZM150.095 148.63C149.84 148.645 149.591 148.55 149.411 148.369C149.231 148.189 149.136 147.94 149.152 147.685C149.107 147.113 149.525 146.61 150.095 146.549C150.378 146.549 150.708 146.502 151.038 146.454L151.038 146.454L151.038 146.454C151.369 146.407 151.699 146.36 151.982 146.36C152.557 146.308 153.065 146.731 153.117 147.306C153.17 147.881 152.746 148.39 152.171 148.442C151.474 148.419 150.777 148.483 150.096 148.631L150.095 148.63Z" fill="#56E090"/>
<path fill-rule="evenodd" clip-rule="evenodd" d="M153.488 99.61C154.102 99.7776 154.74 99.8422 155.375 99.801H155.376C155.926 99.7816 156.392 99.3909 156.507 98.853C156.552 98.2816 156.134 97.7781 155.564 97.717C154.948 97.561 154.312 97.4973 153.677 97.528C152.922 97.528 152.547 97.908 152.547 98.476C152.502 99.0464 152.919 99.549 153.488 99.61ZM146.887 99.99C146.632 100.005 146.383 99.9091 146.202 99.728C146.022 99.5468 145.928 99.2971 145.944 99.042C145.9 98.4713 146.318 97.9691 146.887 97.908C147.17 97.908 147.5 97.8603 147.83 97.8125C148.161 97.7648 148.491 97.717 148.774 97.717C149.349 97.6648 149.858 98.0891 149.91 98.6645C149.963 99.24 149.538 99.7488 148.963 99.801C148.586 99.801 148.256 99.8483 147.926 99.8955C147.596 99.9428 147.266 99.99 146.888 99.99H146.887ZM140.287 101.126C139.818 101.172 139.399 100.834 139.344 100.367C139.268 100.091 139.305 99.7966 139.447 99.5481C139.589 99.2996 139.823 99.1175 140.099 99.042C140.707 98.8263 141.342 98.6993 141.986 98.665C142.509 98.5609 143.017 98.9003 143.121 99.423C143.225 99.9458 142.886 100.454 142.363 100.558C142.056 100.661 141.748 100.708 141.411 100.759C141.127 100.802 140.821 100.849 140.476 100.935C140.476 101.031 140.476 101.079 140.452 101.102C140.428 101.126 140.381 101.126 140.287 101.126Z" fill="#56E090"/>
<path fill-rule="evenodd" clip-rule="evenodd" d="M125.196 105.664C125.375 106.018 125.742 106.239 126.139 106.232H126.517C126.802 106.137 127.086 105.995 127.37 105.852C127.652 105.711 127.935 105.569 128.217 105.475C128.555 105.34 128.796 105.035 128.848 104.675C128.9 104.314 128.756 103.954 128.47 103.728C128.185 103.503 127.8 103.447 127.462 103.582C127.179 103.677 126.896 103.819 126.613 103.96C126.329 104.102 126.046 104.244 125.762 104.339C125.504 104.43 125.296 104.626 125.189 104.877C125.081 105.129 125.084 105.414 125.196 105.664ZM120.293 109.45C119.896 109.457 119.529 109.236 119.35 108.882C119.175 108.638 119.116 108.329 119.189 108.038C119.262 107.747 119.458 107.502 119.727 107.369C120.013 107.177 120.299 107.034 120.585 106.891C120.865 106.751 121.146 106.61 121.427 106.424C121.949 106.111 122.626 106.281 122.938 106.803C123.251 107.325 123.081 108.002 122.559 108.315C122.276 108.504 121.993 108.646 121.71 108.788C121.426 108.931 121.143 109.073 120.859 109.263C120.709 109.408 120.501 109.477 120.294 109.452L120.293 109.45ZM114.067 112.671C114.249 112.904 114.526 113.044 114.822 113.05L114.823 113.052C115.088 113.058 115.349 112.989 115.577 112.854C116.048 112.584 116.491 112.268 116.898 111.909L117.275 111.72C117.708 111.345 117.772 110.696 117.42 110.244C117.069 109.791 116.425 109.693 115.954 110.02L115.577 110.209C115.105 110.479 114.663 110.797 114.256 111.157C113.831 111.547 113.751 112.188 114.067 112.671ZM109.542 117.213C109.246 117.208 108.968 117.068 108.787 116.834C108.588 116.617 108.494 116.325 108.531 116.033C108.567 115.741 108.73 115.481 108.976 115.32C109.524 114.933 110.03 114.489 110.485 113.995C110.956 113.668 111.6 113.766 111.951 114.219C112.303 114.671 112.239 115.32 111.806 115.695C111.523 115.883 111.287 116.073 111.051 116.262L111.051 116.262L111.051 116.262C110.816 116.451 110.58 116.64 110.297 116.829C110.109 117.213 109.92 117.213 109.542 117.213ZM104.073 121.376C104.28 121.576 104.542 121.708 104.826 121.756V121.752C105.109 121.705 105.372 121.574 105.58 121.377C105.958 121 106.524 120.432 106.901 120.052C107.305 119.633 107.3 118.967 106.889 118.555C106.478 118.143 105.812 118.135 105.392 118.538C105.014 118.915 104.448 119.483 104.073 119.863C103.696 120.297 103.696 120.942 104.073 121.376ZM99.7339 126.487C99.8844 126.632 100.092 126.701 100.3 126.676C100.65 126.669 100.986 126.535 101.245 126.298C101.433 126.014 101.622 125.777 101.811 125.54C102 125.303 102.188 125.066 102.377 124.782C102.743 124.312 102.659 123.635 102.189 123.269C101.72 122.903 101.043 122.987 100.677 123.457C100.488 123.741 100.3 123.978 100.111 124.215C99.9222 124.452 99.7334 124.689 99.5449 124.973C99.215 125.452 99.2962 126.103 99.7339 126.487Z" fill="#56E090"/>
<path fill-rule="evenodd" clip-rule="evenodd" d="M91.813 140.305H92.185C92.5842 140.314 92.9531 140.093 93.134 139.737C93.2275 139.455 93.3685 139.172 93.5098 138.888C93.651 138.605 93.7925 138.321 93.887 138.037C94.0961 137.516 93.8436 136.925 93.323 136.716C92.8025 136.507 92.2111 136.759 92.002 137.28C91.908 137.561 91.7675 137.842 91.6268 138.124C91.4845 138.409 91.342 138.694 91.247 138.98C91.1346 139.23 91.1318 139.515 91.2393 139.767C91.3469 140.018 91.5549 140.214 91.813 140.305ZM90.115 146.738H89.926C89.65 146.663 89.4153 146.481 89.2736 146.232C89.132 145.984 89.0951 145.689 89.171 145.413C89.2655 145.13 89.3598 144.799 89.454 144.468L89.454 144.468C89.5483 144.136 89.6425 143.805 89.737 143.522C89.8278 143.14 90.1197 142.837 90.4986 142.733C90.8775 142.629 91.2831 142.739 91.5566 143.022C91.8301 143.304 91.928 143.713 91.812 144.088C91.5976 144.631 91.4704 145.205 91.435 145.788C91.058 146.361 90.685 146.738 90.115 146.738ZM89.36 153.174C88.7519 153.131 88.2685 152.646 88.228 152.038V150.149C88.2548 149.773 88.4828 149.44 88.8242 149.28C89.1655 149.119 89.567 149.156 89.8737 149.375C90.1805 149.595 90.3447 149.963 90.303 150.338V152.231C90.318 152.485 90.2235 152.734 90.0433 152.914C89.8631 153.095 89.6144 153.189 89.36 153.174Z" fill="#56E090"/>
<path d="M127.488 174.013C127.488 174.202 127.299 174.579 127.299 174.77C127.122 175.843 126.737 176.871 126.167 177.797C126.121 178.081 125.989 178.345 125.79 178.554C125.361 179.519 124.788 180.413 124.09 181.206C123.901 181.583 123.524 181.774 123.335 182.151C121.773 183.903 119.923 185.375 117.866 186.505L116.734 187.071C115.979 187.262 115.413 187.641 114.659 187.83C113.905 188.019 113.15 188.207 112.206 188.398C110.132 188.618 108.038 188.554 105.982 188.207C99.6598 186.893 94.5189 182.306 92.4958 176.173C90.4727 170.041 91.8747 163.296 96.1738 158.477C100.473 153.659 107.016 151.501 113.338 152.815C116.76 153.566 119.899 155.272 122.391 157.735C126.899 161.846 128.847 168.065 127.488 174.013Z" fill="url(#paint1_linear)"/>
<path d="M109.757 155.276C106.865 155.244 104.034 156.103 101.647 157.735C98.3008 159.875 95.9821 163.297 95.235 167.198C93.5741 175.231 98.7162 183.097 106.741 184.798C109.111 185.301 111.567 185.236 113.908 184.609L115.608 184.041C115.985 183.852 116.174 183.662 116.551 183.662C118.26 182.737 119.792 181.519 121.077 180.062C121.266 179.873 121.454 179.494 121.643 179.305C122.15 178.655 122.592 177.958 122.964 177.223C123.153 177.034 123.153 176.844 123.341 176.655C123.831 175.625 124.21 174.546 124.473 173.437C125.406 168.522 123.934 163.458 120.513 159.809C118.447 157.765 115.821 156.382 112.967 155.834C111.937 155.466 110.851 155.277 109.757 155.276Z" fill="#F9B400"/>
<path d="M127.272 174.751C127.095 175.824 126.71 176.852 126.14 177.778C126.094 178.063 125.962 178.326 125.763 178.535C125.334 179.5 124.761 180.393 124.063 181.185C123.874 181.565 123.497 181.753 123.308 182.133C121.746 183.885 119.895 185.357 117.837 186.485C117.46 186.676 117.082 186.865 116.705 187.053C115.95 187.244 115.384 187.621 114.632 187.81C113.88 187.999 113.123 188.19 112.179 188.378L101.809 177.969L106.146 175.697L106.712 174.561L106.901 172.479C106.901 172.479 106.712 164.53 106.524 164.341C106.524 164.152 107.845 159.23 107.845 159.23L109.354 162.83L111.241 159.23L127.272 174.751Z" fill="white"/>
<path fill-rule="evenodd" clip-rule="evenodd" d="M108.222 181.564H106.147V177.964C105.488 177.869 104.828 177.869 104.145 177.869C103.461 177.869 102.754 177.869 101.999 177.773C102.232 177.038 102.359 176.274 102.376 175.503C102.376 175.409 102.376 175.361 102.4 175.338C102.423 175.314 102.471 175.314 102.565 175.314H103.886C104.641 175.314 104.641 175.123 104.641 174.557V165.854C104.654 165.55 104.539 165.254 104.324 165.038C104.109 164.823 103.813 164.707 103.509 164.72H102V162.638H105.771C105.865 162.638 105.912 162.638 105.936 162.614C105.96 162.591 105.96 162.543 105.96 162.447V159.041H108.035V162.641H109.544V159.041H111.431V162.447C111.431 162.543 111.431 162.591 111.455 162.614C111.479 162.638 111.526 162.638 111.62 162.638C114.073 163.015 116.146 163.772 116.334 166.044C116.441 166.845 116.238 167.657 115.768 168.314C115.494 168.735 115.1 169.065 114.638 169.262C115.904 169.492 116.967 170.346 117.466 171.532C117.622 172.214 117.686 172.915 117.655 173.614C117.574 174.359 117.315 175.073 116.9 175.696C116.381 176.402 115.657 176.931 114.827 177.212C113.863 177.581 112.84 177.773 111.808 177.778C111.714 177.778 111.667 177.778 111.643 177.802C111.619 177.825 111.619 177.873 111.619 177.969V181.375H109.732V177.969H108.223L108.222 181.564ZM108.222 171.154V175.697C110.297 175.697 111.622 175.697 112.75 175.129C113.328 174.846 113.694 174.258 113.693 173.615C113.78 172.904 113.399 172.218 112.75 171.915C111.617 170.965 109.542 170.965 108.222 171.153V171.154ZM108.222 169.073V165.098V165.097C109.431 164.959 110.655 165.089 111.807 165.478C112.513 165.835 112.905 166.609 112.775 167.389C112.646 168.169 112.024 168.775 111.241 168.884C110.255 169.135 109.231 169.2 108.222 169.073Z" fill="white"/>
<path d="M118.434 94.7098C116.925 101.525 110.322 105.688 108.06 105.688C97.874 108.715 87.689 99.4408 89.951 88.6538C91.5737 80.7901 99.2451 75.7151 107.117 77.2978C114.953 79.1216 119.949 86.8086 118.434 94.7098Z" fill="url(#paint2_linear)"/>
<path d="M97.686 81.841C95.1029 83.5555 93.2788 86.1986 92.592 89.222C89.576 103.795 111.642 109.663 115.604 93.953C117.679 83.923 106.362 76.162 97.686 81.841Z" fill="#F9B400"/>
<path d="M117.274 95.6366L116.708 97.3366C116.708 97.5256 116.519 97.7136 116.519 97.9046C116.19 98.6063 115.743 99.2465 115.198 99.7976C115.009 99.9866 114.821 100.364 114.632 100.555C113.471 101.886 112.062 102.979 110.484 103.773C110.107 103.962 109.918 104.15 109.541 104.15C108.975 104.339 108.598 104.529 108.032 104.718L104.261 101.118V96.3926L98.224 92.0406L101.431 92.7976C101.431 92.7976 101.242 86.9296 101.242 86.7416H103.128C103.694 85.2276 103.317 86.1736 104.071 82.5786L117.274 95.6366Z" fill="white"/>
<path d="M109.919 92.0416L104.071 95.4476L98.413 92.0416L104.071 82.5786L109.919 92.0416Z" fill="white"/>
<path d="M109.919 93.1768L104.073 101.315V101.126L98.225 93.1768L104.073 96.3948L109.919 93.1768Z" fill="white"/>
<path d="M109.919 92.0416L104.073 95.4476L98.413 92.0416L104.073 89.3916L109.919 92.0416Z" fill="#FDF2C8"/>
<path opacity="0.3" d="M104.073 96.3909L109.919 93.1729L104.073 101.311V96.3909Z" fill="#FACD35"/>
<path opacity="0.3" d="M109.919 92.0416L104.071 95.4476V82.5786L109.919 92.0416Z" fill="#FACD35"/>
<defs>
<linearGradient id="paint0_linear" x1="40.7555" y1="214.606" x2="46.6299" y2="214.606" gradientUnits="userSpaceOnUse">
<stop offset="0.003" stop-color="#FFD44F"/>
<stop offset="1" stop-color="#FFA607"/>
</linearGradient>
<linearGradient id="paint1_linear" x1="91.8397" y1="188.219" x2="127.913" y2="188.219" gradientUnits="userSpaceOnUse">
<stop offset="0.003" stop-color="#FFD44F"/>
<stop offset="1" stop-color="#FFA607"/>
</linearGradient>
<linearGradient id="paint2_linear" x1="89.6036" y1="106.327" x2="118.675" y2="106.327" gradientUnits="userSpaceOnUse">
<stop offset="0.003" stop-color="#FFD44F"/>
<stop offset="1" stop-color="#FFA607"/>
</linearGradient>
</defs>
</svg>
